tps/tp6-final/multNCiclos/Simulacion/out/multNb_tb.vcd
$date
  Wed Jan  6 12:58:09 2021
$end
$version
  GHDL v0
$end
$timescale
  1 fs
$end
$scope module standard $end
$upscope $end
$scope module std_logic_1164 $end
$upscope $end
$scope module numeric_std $end
$upscope $end
$scope module textio $end
$upscope $end
$scope module multnciclos_tb $end
$var reg 5 ! a_file[4:0] $end
$var reg 5 " b_file[4:0] $end
$var reg 10 # z_file[9:0] $end
$var reg 10 $ z_del[9:0] $end
$var reg 10 % z_dut[9:0] $end
$var integer 32 & ciclos $end
$var integer 32 ' errores $end
$var reg 10 ( z_del_aux[9:0] $end
$var reg 1 ) clk_tb $end
$var reg 1 * load_tb $end
$var reg 5 + opa_tb[4:0] $end
$var reg 5 , opb_tb[4:0] $end
$var reg 1 - done_tb $end
$scope module dut $end
$var reg 1 . clk_i $end
$var reg 1 / load_i $end
$var reg 5 0 opa_i[4:0] $end
$var reg 5 1 opb_i[4:0] $end
$var reg 1 2 done_o $end
$var reg 10 3 result_o[9:0] $end
$var reg 5 4 entp[4:0] $end
$var reg 5 5 entb[4:0] $end
$var reg 5 6 salp[4:0] $end
$var reg 5 7 salsum[4:0] $end
$var reg 5 8 salb[4:0] $end
$var reg 5 9 sala[4:0] $end
$var reg 5 : aux[4:0] $end
$var reg 5 ; entb_aux[4:0] $end
$var reg 1 < co $end
$var reg 1 = done_aux $end
$scope module rega_inst $end
$var reg 5 > d_i[4:0] $end
$var reg 1 ? rst_i $end
$var reg 1 @ ena_i $end
$var reg 1 A clk_i $end
$var reg 5 B q_o[4:0] $end
$upscope $end
$scope module regb_inst $end
$var reg 5 C d_i[4:0] $end
$var reg 1 D rst_i $end
$var reg 1 E ena_i $end
$var reg 1 F clk_i $end
$var reg 5 G q_o[4:0] $end
$upscope $end
$scope module regp_inst $end
$var reg 5 H d_i[4:0] $end
$var reg 1 I rst_i $end
$var reg 1 J ena_i $end
$var reg 1 K clk_i $end
$var reg 5 L q_o[4:0] $end
$upscope $end
$scope module sum_inst $end
$var reg 5 M a_i[4:0] $end
$var reg 5 N b_i[4:0] $end
$var reg 1 O ci_i $end
$var reg 5 P s_o[4:0] $end
$var reg 1 Q co_o $end
$var reg 6 R aux[5:0] $end
$scope module sumnbgen(0) $end
$scope module sum1b_inst $end
$var reg 1 S a_i $end
$var reg 1 T b_i $end
$var reg 1 U ci_i $end
$var reg 1 V s_o $end
$var reg 1 W co_o $end
$upscope $end
$upscope $end
$scope module sumnbgen(1) $end
$scope module sum1b_inst $end
$var reg 1 X a_i $end
$var reg 1 Y b_i $end
$var reg 1 Z ci_i $end
$var reg 1 [ s_o $end
$var reg 1 \ co_o $end
$upscope $end
$upscope $end
$scope module sumnbgen(2) $end
$scope module sum1b_inst $end
$var reg 1 ] a_i $end
$var reg 1 ^ b_i $end
$var reg 1 _ ci_i $end
$var reg 1 ` s_o $end
$var reg 1 a co_o $end
$upscope $end
$upscope $end
$scope module sumnbgen(3) $end
$scope module sum1b_inst $end
$var reg 1 b a_i $end
$var reg 1 c b_i $end
$var reg 1 d ci_i $end
$var reg 1 e s_o $end
$var reg 1 f co_o $end
$upscope $end
$upscope $end
$scope module sumnbgen(4) $end
$scope module sum1b_inst $end
$var reg 1 g a_i $end
$var reg 1 h b_i $end
$var reg 1 i ci_i $end
$var reg 1 j s_o $end
$var reg 1 k co_o $end
$upscope $end
$upscope $end
$upscope $end
$upscope $end
$scope module del $end
$var reg 1 l clk $end
$var reg 10 m a[9:0] $end
$var reg 10 n b[9:0] $end
$comment aux is not handled $end
$scope module gen_retardo(0) $end
$scope module sin_retardo $end
$upscope $end
$upscope $end
$scope module gen_retardo(1) $end
$scope module con_retardo $end
$scope module aa $end
$var reg 1 o clk $end
$var reg 1 p rst $end
$var reg 10 q d[9:0] $end
$var reg 10 r q[9:0] $end
$upscope $end
$upscope $end
$upscope $end
$scope module gen_retardo(2) $end
$scope module con_retardo $end
$scope module aa $end
$var reg 1 s clk $end
$var reg 1 t rst $end
$var reg 10 u d[9:0] $end
$var reg 10 v q[9:0] $end
$upscope $end
$upscope $end
$upscope $end
$scope module gen_retardo(3) $end
$scope module con_retardo $end
$scope module aa $end
$var reg 1 w clk $end
$var reg 1 x rst $end
$var reg 10 y d[9:0] $end
$var reg 10 z q[9:0] $end
$upscope $end
$upscope $end
$upscope $end
$scope module gen_retardo(4) $end
$scope module con_retardo $end
$scope module aa $end
$var reg 1 { clk $end
$var reg 1 | rst $end
$var reg 10 } d[9:0] $end
$var reg 10 !" q[9:0] $end
$upscope $end
$upscope $end
$upscope $end
$scope module gen_retardo(5) $end
$scope module con_retardo $end
$scope module aa $end
$var reg 1 "" clk $end
$var reg 1 #" rst $end
$var reg 10 $" d[9:0] $end
$var reg 10 %" q[9:0] $end
$upscope $end
$upscope $end
$upscope $end
$upscope $end
$upscope $end
$enddefinitions $end
#0
b00001 !
b00001 "
b0000000001 #
bUUUUUUUUUU $
b00000UUUUU %
b1 &
b0 '
bUUUUUUUUUU (
0)
1*
b00001 +
b00001 ,
X-
0.
1/
b00001 0
b00001 1
X2
b00000UUUUU 3
b00000 4
b00001 5
b00000 6
b00000 7
bUUUUU 8
bUUUUU 9
b00000 :
b0UUUU ;
0<
X=
b00001 >
0?
1@
0A
bUUUUU B
b00001 C
0D
1E
0F
bUUUUU G
b00000 H
1I
1J
0K
b00000 L
b00000 M
b00000 N
0O
b00000 P
0Q
b000000 R
0S
0T
0U
0V
0W
0X
0Y
0Z
0[
0\
0]
0^
0_
0`
0a
0b
0c
0d
0e
0f
0g
0h
0i
0j
0k
0l
b0000000001 m
bUUUUUUUUUU n
0o
0p
b0000000001 q
bUUUUUUUUUU r
0s
0t
bUUUUUUUUUU u
bUUUUUUUUUU v
0w
0x
bUUUUUUUUUU y
bUUUUUUUUUU z
0{
0|
bUUUUUUUUUU }
bUUUUUUUUUU !"
0""
0#"
bUUUUUUUUUU $"
bUUUUUUUUUU %"
#10000000
b0000000001 %
1)
0-
1.
02
b0000000001 3
b00001 7
b00001 8
b00001 9
b00001 :
b10000 ;
0=
1A
b00001 B
1F
b00001 G
1K
b00001 N
b00001 P
1T
1V
1l
1o
b0000000001 r
1s
b0000000001 u
1w
1{
1""
#20000000
0)
0*
0.
0/
b10000 5
0A
b10000 C
0F
0I
0K
0l
0o
0s
0w
0{
0""
#30000000
b0000010000 %
1)
1.
b0000010000 3
b01000 5
b00000 7
b10000 8
b00000 :
b01000 ;
1A
b01000 C
1F
b10000 G
1K
b00000 N
b00000 P
0T
0V
1l
1o
1s
b0000000001 v
1w
b0000000001 y
1{
1""
#40000000
0)
0.
0A
0F
0K
0l
0o
0s
0w
0{
0""
#50000000
b0000001000 %
1)
1.
b0000001000 3
b00100 5
b01000 8
b00100 ;
1A
b00100 C
1F
b01000 G
1K
1l
1o
1s
1w
b0000000001 z
1{
b0000000001 }
1""
#60000000
0)
0.
0A
0F
0K
0l
0o
0s
0w
0{
0""
#70000000
b0000000100 %
1)
1.
b0000000100 3
b00010 5
b00100 8
b00010 ;
1A
b00010 C
1F
b00100 G
1K
1l
1o
1s
1w
1{
b0000000001 !"
1""
b0000000001 $"
#80000000
0)
0.
0A
0F
0K
0l
0o
0s
0w
0{
0""
#90000000
b0000000001 $
b0000000010 %
b0000000001 (
1)
1.
b0000000010 3
b00001 5
b00010 8
b00001 ;
1A
b00001 C
1F
b00010 G
1K
1l
b0000000001 n
1o
1s
1w
1{
1""
b0000000001 %"
#100000000
0)
0.
0A
0F
0K
0l
0o
0s
0w
0{
0""
#110000000
b0000000001 %
1)
1-
1.
12
b0000000001 3
b00001 7
b00001 8
b00001 :
1=
1A
1F
b00001 G
1K
b00001 N
b00001 P
1T
1V
1l
1o
1s
1w
1{
1""
#120000000
b00010 "
b0000000010 #
b10 &
0)
1*
b00010 ,
0.
1/
b00010 1
b00010 5
0A
b00010 C
0F
1I
0K
0l
b0000000010 m
0o
b0000000010 q
0s
0w
0{
0""
#130000000
b0000000010 %
1)
0-
1.
02
b0000000010 3
b00000 7
b00010 8
b00000 :
b00001 ;
0=
1A
1F
b00010 G
1K
b00000 N
b00000 P
0T
0V
1l
1o
b0000000010 r
1s
b0000000010 u
1w
1{
1""
#140000000
0)
0*
0.
0/
b00001 5
0A
b00001 C
0F
0I
0K
0l
0o
0s
0w
0{
0""
#150000000
b0000000001 %
1)
1.
b0000000001 3
b10000 5
b00001 7
b00001 8
b00001 :
b10000 ;
1A
b10000 C
1F
b00001 G
1K
b00001 N
b00001 P
1T
1V
1l
1o
1s
b0000000010 v
1w
b0000000010 y
1{
1""
#160000000
0)
0.
0A
0F
0K
0l
0o
0s
0w
0{
0""
#170000000
b0000010000 %
1)
1.
b0000010000 3
b01000 5
b00000 7
b10000 8
b00000 :
b01000 ;
1A
b01000 C
1F
b10000 G
1K
b00000 N
b00000 P
0T
0V
1l
1o
1s
1w
b0000000010 z
1{
b0000000010 }
1""
#180000000
0)
0.
0A
0F
0K
0l
0o
0s
0w
0{
0""
#190000000
b0000001000 %
1)
1.
b0000001000 3
b00100 5
b01000 8
b00100 ;
1A
b00100 C
1F
b01000 G
1K
1l
1o
1s
1w
1{
b0000000010 !"
1""
b0000000010 $"
#200000000
0)
0.
0A
0F
0K
0l
0o
0s
0w
0{
0""
#210000000
b0000000010 $
b0000000100 %
b0000000010 (
1)
1.
b0000000100 3
b00010 5
b00100 8
b00010 ;
1A
b00010 C
1F
b00100 G
1K
1l
b0000000010 n
1o
1s
1w
1{
1""
b0000000010 %"
#220000000
0)
0.
0A
0F
0K
0l
0o
0s
0w
0{
0""
#230000000
b0000000010 %
1)
1-
1.
12
b0000000010 3
b00010 8
1=
1A
1F
b00010 G
1K
1l
1o
1s
1w
1{
1""
#240000000
b00011 "
b0000000011 #
b11 &
0)
1*
b00011 ,
0.
1/
b00011 1
b00011 5
0A
b00011 C
0F
1I
0K
0l
b0000000011 m
0o
b0000000011 q
0s
0w
0{
0""
#250000000
b0000000011 %
1)
0-
1.
02
b0000000011 3
b00001 7
b00011 8
b00001 :
b10001 ;
0=
1A
1F
b00011 G
1K
b00001 N
b00001 P
1T
1V
1l
1o
b0000000011 r
1s
b0000000011 u
1w
1{
1""
#260000000
0)
0*
0.
0/
b10001 5
0A
b10001 C
0F
0I
0K
0l
0o
0s
0w
0{
0""
#270000000
b0000010001 %
1)
1.
b0000010001 3
b11000 5
b10001 8
b11000 ;
1A
b11000 C
1F
b10001 G
1K
1l
1o
1s
b0000000011 v
1w
b0000000011 y
1{
1""
#280000000
0)
0.
0A
0F
0K
0l
0o
0s
0w
0{
0""
#290000000
b0000011000 %
1)
1.
b0000011000 3
b01100 5
b00000 7
b11000 8
b00000 :
b01100 ;
1A
b01100 C
1F
b11000 G
1K
b00000 N
b00000 P
0T
0V
1l
1o
1s
1w
b0000000011 z
1{
b0000000011 }
1""
#300000000
0)
0.
0A
0F
0K
0l
0o
0s
0w
0{
0""
#310000000
b0000001100 %
1)
1.
b0000001100 3
b00110 5
b01100 8
b00110 ;
1A
b00110 C
1F
b01100 G
1K
1l
1o
1s
1w
1{
b0000000011 !"
1""
b0000000011 $"
#320000000
0)
0.
0A
0F
0K
0l
0o
0s
0w
0{
0""
#330000000
b0000000011 $
b0000000110 %
b0000000011 (
1)
1.
b0000000110 3
b00011 5
b00110 8
b00011 ;
1A
b00011 C
1F
b00110 G
1K
1l
b0000000011 n
1o
1s
1w
1{
1""
b0000000011 %"
#340000000
0)
0.
0A
0F
0K
0l
0o
0s
0w
0{
0""
#350000000
b0000000011 %
1)
1-
1.
12
b0000000011 3
b00001 7
b00011 8
b00001 :
1=
1A
1F
b00011 G
1K
b00001 N
b00001 P
1T
1V
1l
1o
1s
1w
1{
1""
#360000000
b00100 "
b0000000100 #
b100 &
0)
1*
b00100 ,
0.
1/
b00100 1
b00100 5
0A
b00100 C
0F
1I
0K
0l
b0000000100 m
0o
b0000000100 q
0s
0w
0{
0""
#370000000
b0000000100 %
1)
0-
1.
02
b0000000100 3
b00000 7
b00100 8
b00000 :
b00010 ;
0=
1A
1F
b00100 G
1K
b00000 N
b00000 P
0T
0V
1l
1o
b0000000100 r
1s
b0000000100 u
1w
1{
1""
#380000000
0)
0*
0.
0/
b00010 5
0A
b00010 C
0F
0I
0K
0l
0o
0s
0w
0{
0""
#390000000
b0000000010 %
1)
1.
b0000000010 3
b00001 5
b00010 8
b00001 ;
1A
b00001 C
1F
b00010 G
1K
1l
1o
1s
b0000000100 v
1w
b0000000100 y
1{
1""
#400000000
0)
0.
0A
0F
0K
0l
0o
0s
0w
0{
0""
#410000000
b0000000001 %
1)
1.
b0000000001 3
b10000 5
b00001 7
b00001 8
b00001 :
b10000 ;
1A
b10000 C
1F
b00001 G
1K
b00001 N
b00001 P
1T
1V
1l
1o
1s
1w
b0000000100 z
1{
b0000000100 }
1""
#420000000
0)
0.
0A
0F
0K
0l
0o
0s
0w
0{
0""
#430000000
b0000010000 %
1)
1.
b0000010000 3
b01000 5
b00000 7
b10000 8
b00000 :
b01000 ;
1A
b01000 C
1F
b10000 G
1K
b00000 N
b00000 P
0T
0V
1l
1o
1s
1w
1{
b0000000100 !"
1""
b0000000100 $"
#440000000
0)
0.
0A
0F
0K
0l
0o
0s
0w
0{
0""
#450000000
b0000000100 $
b0000001000 %
b0000000100 (
1)
1.
b0000001000 3
b00100 5
b01000 8
b00100 ;
1A
b00100 C
1F
b01000 G
1K
1l
b0000000100 n
1o
1s
1w
1{
1""
b0000000100 %"
#460000000
0)
0.
0A
0F
0K
0l
0o
0s
0w
0{
0""
#470000000
b0000000100 %
1)
1-
1.
12
b0000000100 3
b00100 8
1=
1A
1F
b00100 G
1K
1l
1o
1s
1w
1{
1""
#480000000
b00101 "
b0000000101 #
b101 &
0)
1*
b00101 ,
0.
1/
b00101 1
b00101 5
0A
b00101 C
0F
1I
0K
0l
b0000000101 m
0o
b0000000101 q
0s
0w
0{
0""
#490000000
b0000000101 %
1)
0-
1.
02
b0000000101 3
b00001 7
b00101 8
b00001 :
b10010 ;
0=
1A
1F
b00101 G
1K
b00001 N
b00001 P
1T
1V
1l
1o
b0000000101 r
1s
b0000000101 u
1w
1{
1""
#500000000
0)
0*
0.
0/
b10010 5
0A
b10010 C
0F
0I
0K
0l
0o
0s
0w
0{
0""
#510000000
b0000010010 %
1)
1.
b0000010010 3
b01001 5
b00000 7
b10010 8
b00000 :
b01001 ;
1A
b01001 C
1F
b10010 G
1K
b00000 N
b00000 P
0T
0V
1l
1o
1s
b0000000101 v
1w
b0000000101 y
1{
1""
#520000000
0)
0.
0A
0F
0K
0l
0o
0s
0w
0{
0""
#530000000
b0000001001 %
1)
1.
b0000001001 3
b10100 5
b00001 7
b01001 8
b00001 :
b10100 ;
1A
b10100 C
1F
b01001 G
1K
b00001 N
b00001 P
1T
1V
1l
1o
1s
1w
b0000000101 z
1{
b0000000101 }
1""
#540000000
0)
0.
0A
0F
0K
0l
0o
0s
0w
0{
0""
#550000000
b0000010100 %
1)
1.
b0000010100 3
b01010 5
b00000 7
b10100 8
b00000 :
b01010 ;
1A
b01010 C
1F
b10100 G
1K
b00000 N
b00000 P
0T
0V
1l
1o
1s
1w
1{
b0000000101 !"
1""
b0000000101 $"
#560000000
0)
0.
0A
0F
0K
0l
0o
0s
0w
0{
0""
#570000000
b0000000101 $
b0000001010 %
b0000000101 (
1)
1.
b0000001010 3
b00101 5
b01010 8
b00101 ;
1A
b00101 C
1F
b01010 G
1K
1l
b0000000101 n
1o
1s
1w
1{
1""
b0000000101 %"
#580000000
0)
0.
0A
0F
0K
0l
0o
0s
0w
0{
0""
#590000000
b0000000101 %
1)
1-
1.
12
b0000000101 3
b00001 7
b00101 8
b00001 :
1=
1A
1F
b00101 G
1K
b00001 N
b00001 P
1T
1V
1l
1o
1s
1w
1{
1""
#600000000
b00110 "
b0000000110 #
b110 &
0)
1*
b00110 ,
0.
1/
b00110 1
b00110 5
0A
b00110 C
0F
1I
0K
0l
b0000000110 m
0o
b0000000110 q
0s
0w
0{
0""
#610000000
b0000000110 %
1)
0-
1.
02
b0000000110 3
b00000 7
b00110 8
b00000 :
b00011 ;
0=
1A
1F
b00110 G
1K
b00000 N
b00000 P
0T
0V
1l
1o
b0000000110 r
1s
b0000000110 u
1w
1{
1""
#620000000
0)
0*
0.
0/
b00011 5
0A
b00011 C
0F
0I
0K
0l
0o
0s
0w
0{
0""
#630000000
b0000000011 %
1)
1.
b0000000011 3
b10001 5
b00001 7
b00011 8
b00001 :
b10001 ;
1A
b10001 C
1F
b00011 G
1K
b00001 N
b00001 P
1T
1V
1l
1o
1s
b0000000110 v
1w
b0000000110 y
1{
1""
#640000000
0)
0.
0A
0F
0K
0l
0o
0s
0w
0{
0""
#650000000
b0000010001 %
1)
1.
b0000010001 3
b11000 5
b10001 8
b11000 ;
1A
b11000 C
1F
b10001 G
1K
1l
1o
1s
1w
b0000000110 z
1{
b0000000110 }
1""
#660000000
0)
0.
0A
0F
0K
0l
0o
0s
0w
0{
0""
#670000000
b0000011000 %
1)
1.
b0000011000 3
b01100 5
b00000 7
b11000 8
b00000 :
b01100 ;
1A
b01100 C
1F
b11000 G
1K
b00000 N
b00000 P
0T
0V
1l
1o
1s
1w
1{
b0000000110 !"
1""
b0000000110 $"
#680000000
0)
0.
0A
0F
0K
0l
0o
0s
0w
0{
0""
#690000000
b0000000110 $
b0000001100 %
b0000000110 (
1)
1.
b0000001100 3
b00110 5
b01100 8
b00110 ;
1A
b00110 C
1F
b01100 G
1K
1l
b0000000110 n
1o
1s
1w
1{
1""
b0000000110 %"
#700000000
0)
0.
0A
0F
0K
0l
0o
0s
0w
0{
0""
#710000000
b0000000110 %
1)
1-
1.
12
b0000000110 3
b00110 8
1=
1A
1F
b00110 G
1K
1l
1o
1s
1w
1{
1""
#720000000
b00111 "
b0000000111 #
b111 &
0)
1*
b00111 ,
0.
1/
b00111 1
b00111 5
0A
b00111 C
0F
1I
0K
0l
b0000000111 m
0o
b0000000111 q
0s
0w
0{
0""
#730000000
b0000000111 %
1)
0-
1.
02
b0000000111 3
b00001 7
b00111 8
b00001 :
b10011 ;
0=
1A
1F
b00111 G
1K
b00001 N
b00001 P
1T
1V
1l
1o
b0000000111 r
1s
b0000000111 u
1w
1{
1""
#740000000
0)
0*
0.
0/
b10011 5
0A
b10011 C
0F
0I
0K
0l
0o
0s
0w
0{
0""
#750000000
b0000010011 %
1)
1.
b0000010011 3
b11001 5
b10011 8
b11001 ;
1A
b11001 C
1F
b10011 G
1K
1l
1o
1s
b0000000111 v
1w
b0000000111 y
1{
1""
#760000000
0)
0.
0A
0F
0K
0l
0o
0s
0w
0{
0""
#770000000
b0000011001 %
1)
1.
b0000011001 3
b11100 5
b11001 8
b11100 ;
1A
b11100 C
1F
b11001 G
1K
1l
1o
1s
1w
b0000000111 z
1{
b0000000111 }
1""
#780000000
0)
0.
0A
0F
0K
0l
0o
0s
0w
0{
0""
#790000000
b0000011100 %
1)
1.
b0000011100 3
b01110 5
b00000 7
b11100 8
b00000 :
b01110 ;
1A
b01110 C
1F
b11100 G
1K
b00000 N
b00000 P
0T
0V
1l
1o
1s
1w
1{
b0000000111 !"
1""
b0000000111 $"
#800000000
0)
0.
0A
0F
0K
0l
0o
0s
0w
0{
0""
#810000000
b0000000111 $
b0000001110 %
b0000000111 (
1)
1.
b0000001110 3
b00111 5
b01110 8
b00111 ;
1A
b00111 C
1F
b01110 G
1K
1l
b0000000111 n
1o
1s
1w
1{
1""
b0000000111 %"
#820000000
0)
0.
0A
0F
0K
0l
0o
0s
0w
0{
0""
#830000000
b0000000111 %
1)
1-
1.
12
b0000000111 3
b00001 7
b00111 8
b00001 :
1=
1A
1F
b00111 G
1K
b00001 N
b00001 P
1T
1V
1l
1o
1s
1w
1{
1""
#840000000
b01000 "
b0000001000 #
b1000 &
0)
1*
b01000 ,
0.
1/
b01000 1
b01000 5
0A
b01000 C
0F
1I
0K
0l
b0000001000 m
0o
b0000001000 q
0s
0w
0{
0""
#850000000
b0000001000 %
1)
0-
1.
02
b0000001000 3
b00000 7
b01000 8
b00000 :
b00100 ;
0=
1A
1F
b01000 G
1K
b00000 N
b00000 P
0T
0V
1l
1o
b0000001000 r
1s
b0000001000 u
1w
1{
1""
#860000000
0)
0*
0.
0/
b00100 5
0A
b00100 C
0F
0I
0K
0l
0o
0s
0w
0{
0""
#870000000
b0000000100 %
1)
1.
b0000000100 3
b00010 5
b00100 8
b00010 ;
1A
b00010 C
1F
b00100 G
1K
1l
1o
1s
b0000001000 v
1w
b0000001000 y
1{
1""
#880000000
0)
0.
0A
0F
0K
0l
0o
0s
0w
0{
0""
#890000000
b0000000010 %
1)
1.
b0000000010 3
b00001 5
b00010 8
b00001 ;
1A
b00001 C
1F
b00010 G
1K
1l
1o
1s
1w
b0000001000 z
1{
b0000001000 }
1""
#900000000
0)
0.
0A
0F
0K
0l
0o
0s
0w
0{
0""
#910000000
b0000000001 %
1)
1.
b0000000001 3
b10000 5
b00001 7
b00001 8
b00001 :
b10000 ;
1A
b10000 C
1F
b00001 G
1K
b00001 N
b00001 P
1T
1V
1l
1o
1s
1w
1{
b0000001000 !"
1""
b0000001000 $"
#920000000
0)
0.
0A
0F
0K
0l
0o
0s
0w
0{
0""
#930000000
b0000001000 $
b0000010000 %
b0000001000 (
1)
1.
b0000010000 3
b01000 5
b00000 7
b10000 8
b00000 :
b01000 ;
1A
b01000 C
1F
b10000 G
1K
b00000 N
b00000 P
0T
0V
1l
b0000001000 n
1o
1s
1w
1{
1""
b0000001000 %"
#940000000
0)
0.
0A
0F
0K
0l
0o
0s
0w
0{
0""
#950000000
b0000001000 %
1)
1-
1.
12
b0000001000 3
b01000 8
1=
1A
1F
b01000 G
1K
1l
1o
1s
1w
1{
1""
#960000000
b01001 "
b0000001001 #
b1001 &
0)
1*
b01001 ,
0.
1/
b01001 1
b01001 5
0A
b01001 C
0F
1I
0K
0l
b0000001001 m
0o
b0000001001 q
0s
0w
0{
0""
#970000000
b0000001001 %
1)
0-
1.
02
b0000001001 3
b00001 7
b01001 8
b00001 :
b10100 ;
0=
1A
1F
b01001 G
1K
b00001 N
b00001 P
1T
1V
1l
1o
b0000001001 r
1s
b0000001001 u
1w
1{
1""
#980000000
0)
0*
0.
0/
b10100 5
0A
b10100 C
0F
0I
0K
0l
0o
0s
0w
0{
0""
#990000000
b0000010100 %
1)
1.
b0000010100 3
b01010 5
b00000 7
b10100 8
b00000 :
b01010 ;
1A
b01010 C
1F
b10100 G
1K
b00000 N
b00000 P
0T
0V
1l
1o
1s
b0000001001 v
1w
b0000001001 y
1{
1""
#1000000000
0)
0.
0A
0F
0K
0l
0o
0s
0w
0{
0""
#1010000000
b0000001010 %
1)
1.
b0000001010 3
b00101 5
b01010 8
b00101 ;
1A
b00101 C
1F
b01010 G
1K
1l
1o
1s
1w
b0000001001 z
1{
b0000001001 }
1""
#1020000000
0)
0.
0A
0F
0K
0l
0o
0s
0w
0{
0""
#1030000000
b0000000101 %
1)
1.
b0000000101 3
b10010 5
b00001 7
b00101 8
b00001 :
b10010 ;
1A
b10010 C
1F
b00101 G
1K
b00001 N
b00001 P
1T
1V
1l
1o
1s
1w
1{
b0000001001 !"
1""
b0000001001 $"
#1040000000
0)
0.
0A
0F
0K
0l
0o
0s
0w
0{
0""
#1050000000
b0000001001 $
b0000010010 %
b0000001001 (
1)
1.
b0000010010 3
b01001 5
b00000 7
b10010 8
b00000 :
b01001 ;
1A
b01001 C
1F
b10010 G
1K
b00000 N
b00000 P
0T
0V
1l
b0000001001 n
1o
1s
1w
1{
1""
b0000001001 %"
#1060000000
0)
0.
0A
0F
0K
0l
0o
0s
0w
0{
0""
#1070000000
b0000001001 %
1)
1-
1.
12
b0000001001 3
b00001 7
b01001 8
b00001 :
1=
1A
1F
b01001 G
1K
b00001 N
b00001 P
1T
1V
1l
1o
1s
1w
1{
1""
